{
	"info": {
		"_postman_id": "59fff443-8bdc-47f3-baa1-2c84f5332fd3",
		"name": "nestjs-building-real-project-api-from-scratch",
		"schema": "https://schema.getpostman.com/json/collection/v2.1.0/collection.json"
	},
	"item": [
		{
			"name": "Get all tags",
			"request": {
				"method": "GET",
				"header": [],
				"url": {
					"raw": "{{API_URL}}/tags",
					"host": [
						"{{API_URL}}"
					],
					"path": [
						"tags"
					]
				}
			},
			"response": []
		},
		{
			"name": "Register user",
			"request": {
				"method": "POST",
				"header": [],
				"body": {
					"mode": "raw",
					"raw": "{\r\n    \"user\": {\r\n        \"username\": \"tony\",\r\n        \"email\": \"tony@gmail.com\",\r\n        \"password\": \"123\"\r\n    }\r\n}",
					"options": {
						"raw": {
							"language": "json"
						}
					}
				},
				"url": {
					"raw": "{{API_URL}}/users",
					"host": [
						"{{API_URL}}"
					],
					"path": [
						"users"
					]
				}
			},
			"response": []
		},
		{
			"name": "User login",
			"event": [
				{
					"listen": "test",
					"script": {
						"exec": [
							"var jsonData = pm.response.json();\r",
							"var jwtToken = jsonData.user.token;\r",
							"\r",
							"pm.environment.set(\"JWT_TOKEN\", jwtToken);"
						],
						"type": "text/javascript"
					}
				}
			],
			"request": {
				"method": "POST",
				"header": [],
				"body": {
					"mode": "raw",
					"raw": "{\r\n    \"user\": {\r\n        \"email\": \"alex@gmail.com\",\r\n        \"password\": \"123\"\r\n    }\r\n}",
					"options": {
						"raw": {
							"language": "json"
						}
					}
				},
				"url": {
					"raw": "{{API_URL}}/users/login",
					"host": [
						"{{API_URL}}"
					],
					"path": [
						"users",
						"login"
					]
				}
			},
			"response": []
		},
		{
			"name": "Current user",
			"request": {
				"method": "GET",
				"header": [
					{
						"key": "Authorization",
						"value": "Token {{JWT_TOKEN}}",
						"type": "text"
					}
				],
				"url": {
					"raw": "{{API_URL}}/user",
					"host": [
						"{{API_URL}}"
					],
					"path": [
						"user"
					]
				}
			},
			"response": []
		},
		{
			"name": "Update current user",
			"request": {
				"method": "PUT",
				"header": [
					{
						"key": "Authorization",
						"value": "Token {{JWT_TOKEN}}",
						"type": "text"
					}
				],
				"body": {
					"mode": "raw",
					"raw": "{\r\n    \"user\": {\r\n        \"email\": \"bar@gmail.com\",\r\n        \"username\": \"bar\",\r\n        \"bio\": \"This is my bio\",\r\n        \"image\": \"\"\r\n    }\r\n}",
					"options": {
						"raw": {
							"language": "json"
						}
					}
				},
				"url": {
					"raw": "{{API_URL}}/user",
					"host": [
						"{{API_URL}}"
					],
					"path": [
						"user"
					]
				}
			},
			"response": []
		},
		{
			"name": "Create article",
			"event": [
				{
					"listen": "test",
					"script": {
						"exec": [
							"let responseData=pm.response.json();",
							"pm.environment.set(\"ARTICLE_SLUG\", responseData.article.slug);",
							""
						],
						"type": "text/javascript"
					}
				}
			],
			"request": {
				"method": "POST",
				"header": [
					{
						"key": "Authorization",
						"value": "Token {{JWT_TOKEN}}",
						"type": "text"
					}
				],
				"body": {
					"mode": "raw",
					"raw": "{\r\n    \"article\": {\r\n        \"title\": \"How to train your husky\",\r\n        \"description\": \"More info for you\",\r\n        \"body\": \"You have to believe a lot\",\r\n        \"tagList\": [\"huskies\", \"dragons\"]\r\n    }\r\n}",
					"options": {
						"raw": {
							"language": "json"
						}
					}
				},
				"url": {
					"raw": "{{API_URL}}/articles",
					"host": [
						"{{API_URL}}"
					],
					"path": [
						"articles"
					]
				}
			},
			"response": []
		},
		{
			"name": "Invalid create article",
			"event": [
				{
					"listen": "test",
					"script": {
						"exec": [
							""
						],
						"type": "text/javascript"
					}
				}
			],
			"request": {
				"method": "POST",
				"header": [
					{
						"key": "Authorization",
						"value": "Token {{JWT_TOKEN}}",
						"type": "text"
					}
				],
				"body": {
					"mode": "raw",
					"raw": "{\r\n    \"article\": {\r\n\r\n    }\r\n}",
					"options": {
						"raw": {
							"language": "json"
						}
					}
				},
				"url": {
					"raw": "{{API_URL}}/articles",
					"host": [
						"{{API_URL}}"
					],
					"path": [
						"articles"
					]
				}
			},
			"response": []
		},
		{
			"name": "Get article by slug",
			"request": {
				"method": "GET",
				"header": [],
				"url": {
					"raw": "{{API_URL}}/articles/{{ARTICLE_SLUG}}",
					"host": [
						"{{API_URL}}"
					],
					"path": [
						"articles",
						"{{ARTICLE_SLUG}}"
					]
				}
			},
			"response": []
		},
		{
			"name": "Update article",
			"request": {
				"method": "PUT",
				"header": [
					{
						"key": "Authorization",
						"value": "Token {{JWT_TOKEN}}",
						"type": "text"
					}
				],
				"body": {
					"mode": "raw",
					"raw": "{\r\n    \"article\": {\r\n        \"title\": \"How to train your husky\",\r\n        \"description\": \"Ever wonder how to pet a wolf?\",\r\n        \"body\": \"It is possible! Maybe?\"\r\n    }\r\n}",
					"options": {
						"raw": {
							"language": "json"
						}
					}
				},
				"url": {
					"raw": "{{API_URL}}/articles/{{ARTICLE_SLUG}}",
					"host": [
						"{{API_URL}}"
					],
					"path": [
						"articles",
						"{{ARTICLE_SLUG}}"
					]
				}
			},
			"response": []
		},
		{
			"name": "Delete article by slug",
			"request": {
				"method": "DELETE",
				"header": [
					{
						"key": "Authorization",
						"value": "Token {{JWT_TOKEN}}",
						"type": "text"
					}
				],
				"url": {
					"raw": "{{API_URL}}/articles/{{ARTICLE_SLUG}}",
					"host": [
						"{{API_URL}}"
					],
					"path": [
						"articles",
						"{{ARTICLE_SLUG}}"
					]
				}
			},
			"response": []
		},
		{
			"name": "List of articles",
			"request": {
				"method": "GET",
				"header": [],
				"url": {
					"raw": "{{API_URL}}/articles?limit=2&offset=0&tag=huskies",
					"host": [
						"{{API_URL}}"
					],
					"path": [
						"articles"
					],
					"query": [
						{
							"key": "limit",
							"value": "2"
						},
						{
							"key": "offset",
							"value": "0"
						},
						{
							"key": "author",
							"value": "bar",
							"disabled": true
						},
						{
							"key": "favorited",
							"value": "bar",
							"disabled": true
						},
						{
							"key": "tag",
							"value": "huskies"
						}
					]
				}
			},
			"response": []
		},
		{
			"name": "Current user feed",
			"request": {
				"method": "GET",
				"header": [
					{
						"key": "Authorization",
						"value": "Token {{JWT_TOKEN}}",
						"type": "text"
					}
				],
				"url": {
					"raw": "{{API_URL}}/articles/feed?limit=2&offset=0&tag=huskies",
					"host": [
						"{{API_URL}}"
					],
					"path": [
						"articles",
						"feed"
					],
					"query": [
						{
							"key": "limit",
							"value": "2"
						},
						{
							"key": "offset",
							"value": "0"
						},
						{
							"key": "author",
							"value": "bar",
							"disabled": true
						},
						{
							"key": "favorited",
							"value": "bar",
							"disabled": true
						},
						{
							"key": "tag",
							"value": "huskies"
						}
					]
				}
			},
			"response": []
		},
		{
			"name": "Favorite article",
			"request": {
				"method": "POST",
				"header": [
					{
						"key": "Authorization",
						"value": "Token {{JWT_TOKEN}}",
						"type": "text"
					}
				],
				"body": {
					"mode": "raw",
					"raw": "",
					"options": {
						"raw": {
							"language": "json"
						}
					}
				},
				"url": {
					"raw": "{{API_URL}}/articles/{{ARTICLE_SLUG}}/favorite",
					"host": [
						"{{API_URL}}"
					],
					"path": [
						"articles",
						"{{ARTICLE_SLUG}}",
						"favorite"
					]
				}
			},
			"response": []
		},
		{
			"name": "Unfavorite article",
			"request": {
				"method": "DELETE",
				"header": [
					{
						"key": "Authorization",
						"value": "Token {{JWT_TOKEN}}",
						"type": "text"
					}
				],
				"body": {
					"mode": "raw",
					"raw": "",
					"options": {
						"raw": {
							"language": "json"
						}
					}
				},
				"url": {
					"raw": "{{API_URL}}/articles/{{ARTICLE_SLUG}}/favorite",
					"host": [
						"{{API_URL}}"
					],
					"path": [
						"articles",
						"{{ARTICLE_SLUG}}",
						"favorite"
					]
				}
			},
			"response": []
		},
		{
			"name": "Get profile",
			"request": {
				"method": "GET",
				"header": [
					{
						"key": "Authorization",
						"value": "Token {{JWT_TOKEN}}",
						"type": "text"
					}
				],
				"url": {
					"raw": "{{API_URL}}/profiles/{{PROFILE_NAME}}",
					"host": [
						"{{API_URL}}"
					],
					"path": [
						"profiles",
						"{{PROFILE_NAME}}"
					]
				}
			},
			"response": []
		},
		{
			"name": "Follow profile",
			"request": {
				"method": "POST",
				"header": [
					{
						"key": "Authorization",
						"value": "Token {{JWT_TOKEN}}",
						"type": "text"
					}
				],
				"url": {
					"raw": "{{API_URL}}/profiles/{{PROFILE_NAME}}/follow",
					"host": [
						"{{API_URL}}"
					],
					"path": [
						"profiles",
						"{{PROFILE_NAME}}",
						"follow"
					]
				}
			},
			"response": []
		},
		{
			"name": "Unfollow profile",
			"request": {
				"method": "DELETE",
				"header": [
					{
						"key": "Authorization",
						"value": "Token {{JWT_TOKEN}}",
						"type": "text"
					}
				],
				"url": {
					"raw": "{{API_URL}}/profiles/{{PROFILE_NAME}}/follow",
					"host": [
						"{{API_URL}}"
					],
					"path": [
						"profiles",
						"{{PROFILE_NAME}}",
						"follow"
					]
				}
			},
			"response": []
		}
	]
}